{
  "bookGuiScale": 0,
  "clickedVisualize": false,
  "bookData": {
    "botania:lexicon": {
      "viewedEntries": [
        "botania:devices/pylon",
        "botania:mana/mana_mirror",
        "botania:mana/lens",
        "botania:basics/rune_altar"
      ],
      "bookmarks": [],
      "completedManualQuests": []
    }
  }
}